<!--Start BMI / IMC HTML Code-->
<form action="http://www.my-bmi.eu/bmi_webmaster.pl" target="formtarget" method="post" onSubmit="window.open('http://www.my-bmi.eu/leer.htm','formtarget','width=750,height=750,scrollbars=yes,resizable=yes');">
<input type="hidden" name="lang" value="en">
<input type="hidden" name="webmaster" value="yes">
	<table border="1" width="300" style="border-collapse: collapse" bordercolor="#800000">
		<tr>
			<td bgcolor="#800000">
			<p align="center"><b><font face="Tahoma" size="2" color="#FFFFFF">
			BMI calculator</font></b></td>
		</tr>
		<tr>
			<td>
			<table border="0" width="300">
				<tr>
					<td width="29%"><font face="Tahoma" size="2">Weight:</font></td>
					<td width="68%"><font face="Tahoma" size="3">
					<input type="text" name="gewicht" size="5"></font><font size="2" face="Tahoma"> 
					KG </font></td>
				</tr>
				<tr>
					<td width="29%"><font face="Tahoma" size="2">Größe:</font></td>
					<td width="68%"><font face="Tahoma" size="3">
					<input type="text" name="groesse" size="5"></font><font size="2" face="Tahoma"> 
					cm</font></td>
				</tr>
				<tr>
					<td width="29%"><font size="2" face="Tahoma">Alter:</font></td>
					<td width="68%">
									<span style="font-size: 9pt">
									<select size="1" name="alter">
									<option selected value="24">19 -24 years
									</option>
									<option value="34">24 - 34 years</option>
									<option value="44">34 - 44 years</option>
									<option value="54">45 - 54 years</option>
									<option value="64">55 - 64 years</option>
									<option value="65">over 64 years</option>
									</select></span></td>
				</tr>
				<tr>
					<td width="29%"> </td>
					<td width="68%">									
							<input type="submit" value="calculate BMI" name="B14" style="font-family: Tahoma; font-size: 8pt"><font face="Arial" size="3"><br>
					</font><font face="Arial" style="font-size: 5pt">
					 </font></td>
				</tr>
				<tr>
					<td colspan="2">
					<p align="center"><font size="1" face="Tahoma">(c) 
					</font>
							<font size="1">my-BMI.eu | <a href="http://www.my-bmi.eu" target="_blank">BMI calculator</a></font></p>
					</td>
				</tr>
			</table>
			</td>
		</tr>
	</table>
</form>
<!--end of the BMI / IMC tool-->
